{
  "error": false,
  "isNewApp":false,
  "isConsent":false,
  "app_pkg": "com.ds.bluetoothmouse.remotemouse.wifimouse.bluetoothkeyboard.bluetoothmouseandkeyboard",
  "fbBannr": "YOUR_PLACEMENT_ID",
  "fbInter": "YOUR_PLACEMENT_ID",
  "fbNative": "YOUR_PLACEMENT_ID",
  "fbNativeBnnr": "YOUR_PLACEMENT_ID",
  
  "AdmobBannr": "ca-app-pub-3940256099942544/6300978111",
  "AdmobInter": "ca-app-pub-3940256099942544/1033173712",
  "AdmobInterSplash":"",
  "AdmobNative": "ca-app-pub-3940256099942544/2247696110",
  "AdmobOpenAds": "ca-app-pub-3940256099942544/3419835294",
  
  "admob_pub_id": "pub-8295793237549637",
  "admob_app_id": "ca-app-pub-8295793237549637~1512167265",
  "adType": "custom",
  "adStatus": "admob",
  "loadMore":false,
  "Advertise_List": [
    {
     
	    "ad_id": 0,
	    "app_name": "Tube Music Downloader",
	    "app_packageName": "com.ps.musicdownloader.mp3music.freemusic.newsongdownload.tubemusicdownloader.video.downloader.playtube",
	    "app_logo": "https://play-lh.googleusercontent.com/FKDdplsZtQu0P9nC6tUJ-8lYOiXzeiVzwN0-Bq0tvjzcvFMVIkP05m8gTfYdS-MN0FdN=w240-h480",
	    "app_banner": "https://play-lh.googleusercontent.com/TAhKH2DF72MIdd_1Ha3FovgJkOihWWqN1nOuEB2TaMGmqdW5nzakhzIvypalNbp5r6OH=w416-h235",
        "app_shortDecription": "Free Music Downloader & New Music Download",
		"app_rating": "5.0",
		"app_download": "5000",
		"app_AdFormat": "Banner",
		"app_buttonName": "Install"
	  
    }
  ],
  "adMobTime":40
}
