{
  "error": false,
  "isNewApp":false,
  "app_pkg": "com.cll.forcelte.lte4g.force4g.ltemode.netspeedtest.internetspeedtest",
  "fbBannr": "1331252180958480_1331252754291756",
  "fbInter": "1331252180958480_1331252830958415",
  "fbNative": "1331252180958480_1335602617190103",
  "fbNativeBnnr": "YOUR_PLACEMENT_ID",
  "AdmobBannr": "ca-app-pub-8295793237549637/4965769761",
  "AdmobInter": "ca-app-pub-8295793237549637/2339606423",
  "AdmobInterSplash":"",
  "AdmobNative": "ca-app-pub-8295793237549637/8580762908",
  "AdmobOpenAds": "ca-app-pub-8295793237549637/6806261203",
  "admob_pub_id": "pub-8295793237549637",
  "admob_app_id": "ca-app-pub-8295793237549637~3193523092",
  "adType": "admob",
  "adStatus": "admob",
  "loadMore":false,
  "isConsent":false,
  "Advertise_List": [
    {
     
	    "ad_id": 0,
	    "app_name": "Video Player All Format",
	    "app_packageName": "com.videoplayer.musicplayer.audioplayer.videoplayerallformat",
	    "app_logo": "https://play-lh.googleusercontent.com/5adeqWGt4RLISBe1zfHo65b4KWo2BVc1LTz5JFOGvheE7ohafUSChcQBZaUsrdMGeTU=w240-h480",
	    "app_banner": "https://play-lh.googleusercontent.com/qoj2RKinrIxuSKXmzef0De8kQ5_wWMy_7ZlD0eO-vAdgkTwIftAMqjqQ3US3SUKaEQ=w416-h235",
        "app_shortDecription": "HD video player helps you to play video which is available on your device",
		"app_rating": "4.4",
		"app_download": "1000",
		"app_AdFormat": "Banner",
		"app_buttonName": "Install"
	  
    }
  ],
  "adMobTime":40
}
